<?xml version="1.0" encoding="utf-8"?>
<!-- Generator: Adobe Illustrator 25.3.1, SVG Export Plug-In . SVG Version: 6.00 Build 0)  -->
<svg version="1.1" id="Layer_1" xmlns="http://www.w3.org/2000/svg" xmlns:xlink="http://www.w3.org/1999/xlink" x="0px" y="0px"
	 viewBox="0 0 26 36" style="enable-background:new 0 0 26 36;" xml:space="preserve">
<style type="text/css">
	.st0{opacity:0.4;fill:#333333;enable-background:new    ;}
	.st1{fill:#333333;}
</style>
<g>
	<path class="st0" d="M3.4,10.2c5.8,1,11.4-2.2,13.5-7.7c-1.6-1.3-3.7-2-5.8-1.9C7.3,0.6,3.4,4.4,3.4,10.2z"/>
	<path class="st0" d="M16.9,2.5c0.3,5.9,4.4,5.9,4.4,5.9C21.2,2.5,16.9,2.5,16.9,2.5z"/>
	<path class="st1" d="M13.8,29.7v0.6c0,0.4-0.3,0.7-0.7,0.7c-0.4,0-0.7-0.3-0.7-0.7v-0.6c0-0.4,0.3-0.7,0.7-0.7
		C13.5,29,13.8,29.3,13.8,29.7z M23.3,32.4L23,33.2c-0.5,1.2-1.2,1.4-1.7,1.4H4.8c-0.6,0-1.2-0.2-1.7-1.3l-0.3-0.9
		c-1.2-4.3-2.4-8.3,0.1-10.5C4,21,5.5,20.8,6.8,21.4c0.6,3.3,3,5.9,6.1,6.8h0.2l0.2-0.1c3-1.2,5.2-3.7,6.1-6.8
		c1.3-0.6,2.8-0.4,3.9,0.5C25.7,24.1,24.5,28.1,23.3,32.4L23.3,32.4z M13.1,23L13.1,23L13.1,23c1.6,0,3.2-0.3,4.6-1
		c-0.9,2.2-2.6,3.9-4.7,4.9c-2.2-0.8-4-2.6-4.6-4.9C9.8,22.6,11.4,23,13.1,23z M24.1,20.9c-1.8-1.3-4.1-1.5-6.1-0.5l-0.6,0.2
		c-1.4,0.7-2.9,1-4.4,1l0,0l0,0c-1.5,0-3-0.3-4.4-1l-0.5-0.2c-1.9-1.1-4.3-0.9-6.1,0.5c-3.2,2.7-1.8,7.4-0.5,11.9l0.3,1
		C2.2,35.1,3.4,36,4.7,36h16.5c1.4,0,2.6-0.9,3-2.2l0.3-0.9C25.9,28.3,27.3,23.6,24.1,20.9z M11.1,1.3c1.8,0,3.5,0.5,5,1.5
		c-1.9,4.8-6.9,7.6-12,6.9C4.4,4.4,7.9,1.3,11.1,1.3z M20.2,8.9c0.1,0.4,0.1,0.8,0.1,1.2c0.2,4.2-3,7.8-7.2,8.1
		C9.3,18,6.2,15,6,11.1c4.4,0,8.5-2.4,10.7-6.3C16.9,6.7,18.3,8.2,20.2,8.9L20.2,8.9z M20.6,7.6c-0.9-0.3-2.5-1.3-2.9-4.3
		C18.6,3.6,20.3,4.5,20.6,7.6z M4.6,11c0.2,4.6,3.9,8.2,8.5,8.4c5-0.2,8.8-4.4,8.6-9.4c0-0.3,0-0.6-0.1-0.9H22V8.4
		c-0.1-5.6-3.7-6.4-4.8-6.5c-1.7-1.3-3.9-2-6.1-1.9c-4,0-8.4,3.9-8.4,10.3v0.6L3.2,11C3.7,10.9,4.1,11,4.6,11z"/>
</g>
</svg>
