<?xml version="1.0" encoding="utf-8"?>
<!-- Generator: Adobe Illustrator 26.0.3, SVG Export Plug-In . SVG Version: 6.00 Build 0)  -->
<svg version="1.1" id="Layer_1" xmlns="http://www.w3.org/2000/svg" xmlns:xlink="http://www.w3.org/1999/xlink" x="0px" y="0px"
	 viewBox="0 0 387.2 50" style="enable-background:new 0 0 387.2 50;" xml:space="preserve">
<style type="text/css">
	.st0{fill:#1C355E;}
	.st1{fill:#00764B;}
</style>
<g>
	<g>
		<path class="st0" d="M57.9,25c0-13.8-11.2-25-25-25c-0.4,0-0.9,0-1.3,0C18.4,0.7,7.9,11.6,7.9,25c0,0.1,0,0.3,0,0.4
			c2-1.3,15.7-11.7,17.3-12.8c0.8-0.5,1.6-0.9,3,0.3c2.2,2,13.3,12.6,13.7,12.5c0.4,0,3.5-5.2,5.1-6.8c0.3-0.3,0.8-0.3,1.1-0.1
			c1.5,1,3.9,3.6,5.9,6C55.5,26.3,57.9,28.1,57.9,25z"/>
	</g>
	<g>
		<g>
			<g>
				<g>
					<path class="st1" d="M0,32.2c0,0,9.7-10,29.7-1.1c12.4,5.5,27.4,8.5,31.5-5.7c0,0,0.2,15.6-16.5,15.7C25,41.2,13.9,25.7,0,32.2
						z"/>
				</g>
				<path class="st1" d="M31.1,28c6.3,2.8,12,4.3,16.3,4.3c4.8,0,7.5-2.6,7.1-3c-1.8-1.9-3.3-3.9-5.6-6.2c-0.6-0.6-1.2-0.5-1.5,0
					c-0.4,0.5-4.5,6.8-4.9,6.8c-0.3,0-14.5-13.2-14.8-13.5c-1.1-0.9-1.9-0.6-2.7,0c-0.6,0.5-7.1,5.7-9.9,7.7
					C20.1,24.2,25.5,25.5,31.1,28z"/>
			</g>
			<g>
				<path class="st0" d="M44.8,45.3l-0.3,0c-9.7,0-17.4-3.4-24.1-6.4c-2.5-1.1-4.8-2.1-7-2.9c-3.4-1.2-2.5,0.7-2.1,1.5
					C15.7,45,23.7,50,32.9,50c5.6,0,10.7-1.8,14.8-4.9C46.8,45.2,45.8,45.3,44.8,45.3z"/>
			</g>
		</g>
	</g>
</g>
<g>
	<path class="st0" d="M85.5,44.2l0-8.6l-4.3,7.1h-1.1l-4.3-7v8.5h-2.3v-13h2l5.2,8.6l5.1-8.6h2l0,13H85.5z"/>
	<path class="st0" d="M105.7,42.2v2H96v-13h9.5v2h-7.1v3.4h6.3v2h-6.3v3.6H105.7z"/>
	<path class="st0" d="M113.1,31.3h5.7c4.2,0,7.1,2.6,7.1,6.5c0,3.9-2.9,6.5-7.1,6.5h-5.7V31.3z M118.6,42.2c2.9,0,4.8-1.8,4.8-4.5
		s-1.9-4.5-4.8-4.5h-3.2v8.9H118.6z"/>
	<path class="st0" d="M133.1,31.3h2.4v13h-2.4V31.3z"/>
	<path class="st0" d="M142.7,37.8c0-3.9,3-6.7,7-6.7c2.1,0,3.9,0.8,5.1,2.2l-1.6,1.5c-0.9-1-2.1-1.5-3.5-1.5c-2.7,0-4.6,1.9-4.6,4.6
		c0,2.7,1.9,4.6,4.6,4.6c1.4,0,2.5-0.5,3.5-1.5l1.6,1.5c-1.2,1.4-3,2.2-5.2,2.2C145.7,44.4,142.7,41.6,142.7,37.8z"/>
	<path class="st0" d="M169.9,41.2h-6.5l-1.3,3h-2.5l5.8-13h2.4l5.9,13h-2.5L169.9,41.2z M169.1,39.3l-2.4-5.7l-2.4,5.7H169.1z"/>
	<path class="st0" d="M180.1,31.3h2.4v10.9h6.8v2h-9.2V31.3z"/>
	<path class="st0" d="M204.7,37.8c0-3.9,3-6.7,7-6.7c2.1,0,3.9,0.8,5.1,2.2l-1.6,1.5c-0.9-1-2.1-1.5-3.5-1.5c-2.7,0-4.6,1.9-4.6,4.6
		c0,2.7,1.9,4.6,4.6,4.6c1.4,0,2.5-0.5,3.5-1.5l1.6,1.5c-1.2,1.4-3,2.2-5.2,2.2C207.6,44.4,204.7,41.6,204.7,37.8z"/>
	<path class="st0" d="M233.5,42.2v2h-9.7v-13h9.5v2h-7.1v3.4h6.3v2h-6.3v3.6H233.5z"/>
	<path class="st0" d="M252.4,31.3v13h-2l-7.2-8.8v8.8h-2.4v-13h2l7.2,8.8v-8.8H252.4z"/>
	<path class="st0" d="M263.2,33.3h-4.3v-2h11v2h-4.3v10.9h-2.4V33.3z"/>
	<path class="st0" d="M286.1,42.2v2h-9.7v-13h9.5v2h-7.1v3.4h6.3v2h-6.3v3.6H286.1z"/>
	<path class="st0" d="M301.9,44.2l-2.7-3.8c-0.2,0-0.3,0-0.5,0h-2.9v3.8h-2.4v-13h5.3c3.4,0,5.5,1.7,5.5,4.6c0,2-1,3.4-2.8,4.1
		l3,4.3H301.9z M298.7,33.3h-2.8v5.2h2.8c2.1,0,3.2-1,3.2-2.6C301.9,34.2,300.8,33.3,298.7,33.3z"/>
</g>
<g>
	<path class="st0" d="M90.6,4.3v18.3h-2.8L77.7,10.2v12.4h-3.4V4.3h2.8l10.1,12.4V4.3H90.6z"/>
	<path class="st0" d="M94,15.6c0-4.2,3.1-7.1,7.4-7.1c4.3,0,7.5,3,7.5,7.1s-3.1,7.2-7.5,7.2C97.2,22.8,94,19.8,94,15.6z M105.6,15.6
		c0-2.7-1.8-4.4-4.2-4.4c-2.4,0-4.1,1.7-4.1,4.4c0,2.7,1.8,4.4,4.1,4.4C103.8,20,105.6,18.3,105.6,15.6z"/>
	<path class="st0" d="M120.1,8.4v3.1c-0.3-0.1-0.5-0.1-0.8-0.1c-2.5,0-4.1,1.5-4.1,4.3v6.8h-3.3v-14h3.1v2
		C116.1,9.2,117.8,8.4,120.1,8.4z"/>
	<path class="st0" d="M131.8,21.8c-0.8,0.6-2,0.9-3.1,0.9c-3.1,0-4.8-1.6-4.8-4.7v-6.7h-2.3V8.7h2.3V5.5h3.3v3.2h3.7v2.6h-3.7V18
		c0,1.4,0.7,2.1,1.9,2.1c0.7,0,1.3-0.2,1.8-0.6L131.8,21.8z"/>
	<path class="st0" d="M148.3,14.6v8H145V15c0-2.5-1.2-3.7-3.3-3.7c-2.3,0-3.9,1.4-3.9,4.2v7.1h-3.3V3.2h3.3v7.1
		c1.1-1.2,2.7-1.8,4.7-1.8C145.8,8.4,148.3,10.4,148.3,14.6z"/>
	<path class="st0" d="M165.6,16.6h-11c0.4,2,2.1,3.3,4.5,3.3c1.6,0,2.8-0.5,3.8-1.5l1.8,2c-1.3,1.5-3.2,2.3-5.6,2.3
		c-4.7,0-7.7-3-7.7-7.2s3.1-7.1,7.2-7.1c4.1,0,7.1,2.9,7.1,7.2C165.7,15.9,165.7,16.3,165.6,16.6z M154.6,14.5h7.9
		c-0.3-2-1.8-3.4-3.9-3.4C156.5,11.1,155,12.4,154.6,14.5z"/>
	<path class="st0" d="M176.9,8.4v3.1c-0.3-0.1-0.5-0.1-0.8-0.1c-2.5,0-4.1,1.5-4.1,4.3v6.8h-3.3v-14h3.1v2
		C172.9,9.2,174.6,8.4,176.9,8.4z"/>
	<path class="st0" d="M193.4,14.6v8h-3.3V15c0-2.5-1.2-3.7-3.3-3.7c-2.3,0-3.9,1.4-3.9,4.2v7.1h-3.3v-14h3.1v1.8
		c1.1-1.3,2.8-2,4.8-2C190.9,8.4,193.4,10.4,193.4,14.6z"/>
	<path class="st0" d="M221.4,4.3v18.3h-2.8l-10.1-12.4v12.4h-3.4V4.3h2.8L218,16.7V4.3H221.4z"/>
	<path class="st0" d="M239,16.6h-11c0.4,2,2.1,3.3,4.5,3.3c1.6,0,2.8-0.5,3.8-1.5l1.8,2c-1.3,1.5-3.2,2.3-5.6,2.3
		c-4.7,0-7.7-3-7.7-7.2s3.1-7.1,7.2-7.1c4.1,0,7.1,2.9,7.1,7.2C239.1,15.9,239.1,16.3,239,16.6z M228.1,14.5h7.9
		c-0.3-2-1.8-3.4-3.9-3.4C229.9,11.1,228.4,12.4,228.1,14.5z"/>
	<path class="st0" d="M255,8.6l-6,14h-3.4l-6-14h3.4l4.3,10.4l4.5-10.4H255z"/>
	<path class="st0" d="M268.3,14.4v8.2h-3.1v-1.7c-0.8,1.2-2.3,1.9-4.4,1.9c-3.2,0-5.2-1.8-5.2-4.2c0-2.3,1.6-4.2,5.8-4.2h3.6v-0.2
		c0-1.9-1.2-3-3.5-3c-1.6,0-3.2,0.5-4.2,1.4l-1.3-2.4c1.5-1.2,3.7-1.7,5.9-1.7C266,8.4,268.3,10.4,268.3,14.4z M265.1,18.2v-1.6
		h-3.4c-2.2,0-2.8,0.8-2.8,1.9c0,1.2,1,1.9,2.7,1.9C263.1,20.4,264.5,19.6,265.1,18.2z"/>
	<path class="st0" d="M286.3,3.2v19.4h-3.1v-1.8c-1.1,1.3-2.7,2-4.6,2c-4.1,0-7.1-2.8-7.1-7.2c0-4.3,3-7.1,7.1-7.1
		c1.8,0,3.4,0.6,4.5,1.9V3.2H286.3z M283.1,15.6c0-2.7-1.8-4.4-4.2-4.4c-2.4,0-4.2,1.7-4.2,4.4c0,2.7,1.8,4.4,4.2,4.4
		C281.3,20,283.1,18.3,283.1,15.6z"/>
	<path class="st0" d="M302.3,14.4v8.2h-3.1v-1.7c-0.8,1.2-2.3,1.9-4.4,1.9c-3.2,0-5.2-1.8-5.2-4.2c0-2.3,1.6-4.2,5.8-4.2h3.6v-0.2
		c0-1.9-1.2-3-3.5-3c-1.6,0-3.2,0.5-4.2,1.4l-1.3-2.4c1.5-1.2,3.7-1.7,5.9-1.7C300,8.4,302.3,10.4,302.3,14.4z M299,18.2v-1.6h-3.4
		c-2.2,0-2.8,0.8-2.8,1.9c0,1.2,1,1.9,2.7,1.9C297.1,20.4,298.5,19.6,299,18.2z"/>
	<path class="st0" d="M312.4,20.6l1.2-2.6c1.5,1.2,3.8,2,6,2c2.9,0,4.1-1,4.1-2.4c0-3.9-10.9-1.4-10.9-8.2c0-3,2.4-5.5,7.4-5.5
		c2.2,0,4.5,0.6,6.1,1.6l-1.1,2.6c-1.6-1-3.5-1.4-5-1.4c-2.8,0-4,1.1-4,2.5c0,3.9,10.9,1.4,10.9,8.1c0,2.9-2.4,5.4-7.4,5.4
		C316.8,22.8,314,21.9,312.4,20.6z"/>
	<path class="st0" d="M329.7,4.3c0-1.1,0.9-2,2.1-2c1.2,0,2.1,0.8,2.1,1.9c0,1.2-0.9,2-2.1,2C330.6,6.3,329.7,5.4,329.7,4.3z
		 M330.1,8.6h3.3v14h-3.3V8.6z"/>
	<path class="st0" d="M350.7,16.6h-11c0.4,2,2.1,3.3,4.5,3.3c1.6,0,2.8-0.5,3.8-1.5l1.8,2c-1.3,1.5-3.2,2.3-5.6,2.3
		c-4.7,0-7.7-3-7.7-7.2s3.1-7.1,7.2-7.1c4.1,0,7.1,2.9,7.1,7.2C350.8,15.9,350.8,16.3,350.7,16.6z M339.8,14.5h7.9
		c-0.3-2-1.8-3.4-3.9-3.4C341.6,11.1,340.1,12.4,339.8,14.5z"/>
	<path class="st0" d="M362,8.4v3.1c-0.3-0.1-0.5-0.1-0.8-0.1c-2.5,0-4.1,1.5-4.1,4.3v6.8h-3.3v-14h3.1v2C358,9.2,359.7,8.4,362,8.4z
		"/>
	<path class="st0" d="M372.9,8.4v3.1c-0.3-0.1-0.5-0.1-0.8-0.1c-2.5,0-4.1,1.5-4.1,4.3v6.8h-3.3v-14h3.1v2
		C368.8,9.2,370.5,8.4,372.9,8.4z"/>
	<path class="st0" d="M387.2,14.4v8.2h-3.1v-1.7c-0.8,1.2-2.3,1.9-4.4,1.9c-3.2,0-5.2-1.8-5.2-4.2c0-2.3,1.6-4.2,5.8-4.2h3.6v-0.2
		c0-1.9-1.2-3-3.5-3c-1.6,0-3.2,0.5-4.2,1.4l-1.3-2.4c1.5-1.2,3.7-1.7,5.9-1.7C384.9,8.4,387.2,10.4,387.2,14.4z M384,18.2v-1.6
		h-3.4c-2.2,0-2.8,0.8-2.8,1.9c0,1.2,1,1.9,2.7,1.9C382,20.4,383.4,19.6,384,18.2z"/>
</g>
</svg>
